…
rstatix::cor_mark_significant(cmat)
#>             rowname bill_length_mm bill_depth_mm flipper_length_mm body_mass_g year
#> 1    bill_length_mm                                                                
#> 2     bill_depth_mm      -0.23****                                                 
#> 3 flipper_length_mm       0.65****     -0.58****                                   
#> 4       body_mass_g       0.59****     -0.47****          0.87****                 
#> 5              year          0.033        -0.048            0.15**       0.022
If you don’t like the matrix format, you can pivot the matrix to a long format with rstatix::cor_gather() as a dataframe of paired variables. The returned table will show both the coefficients and the p-values as numbers. Note that the table might get quite long depending on the number of correlated variables:

rstatix::cor_gather(cmat)
#> # A tibble: 25 x 4
#>    var1              var2              cor        p
#>    <chr>             <chr>           <dbl>    <dbl>
#>  1 bill_length_mm    bill_length_mm  1     0.      
#>  2 bill_depth_mm     bill_length_mm -0.23  2.53e- 5
#>  3 flipper_length_mm bill_length_mm  0.65  7.21e-42
#>  4 body_mass_g       bill_length_mm  0.59  1.54e-32
#>  5 year              bill_length_mm  0.033 5.53e- 1
#>  6 bill_length_mm    bill_depth_mm  -0.23  2.53e- 5
#>  7 bill_depth_mm     bill_depth_mm   1     0.      
#>  8 flipper_length_mm bill_depth_mm  -0.580 4.78e-31
#>  9 body_mass_g       bill_depth_mm  -0.47  7.02e-20
#> 10 year              bill_depth_mm  -0.048 3.81e- 1
#> # … with 15 more rows
…
